C:\Users\sasaki.airi\workspace\20ch\src\main\java\jp\co\kenshu\dto\MessageDto.java
C:\Users\sasaki.airi\workspace\20ch\src\main\java\jp\co\kenshu\dto\CommentDto.java
C:\Users\sasaki.airi\workspace\20ch\src\main\java\jp\co\kenshu\entity\Comment.java
C:\Users\sasaki.airi\workspace\20ch\src\main\java\jp\co\kenshu\entity\Message.java
C:\Users\sasaki.airi\workspace\20ch\src\main\java\jp\co\kenshu\controller\HomeController.java
C:\Users\sasaki.airi\workspace\20ch\src\main\java\jp\co\kenshu\mapper\Mapper.java
C:\Users\sasaki.airi\workspace\20ch\src\main\java\jp\co\kenshu\service\MessageService.java
C:\Users\sasaki.airi\workspace\20ch\src\main\java\jp\co\kenshu\form\MessageForm.java
